{
    "APP_NAME": "Data Ingestion from MySQL to HDFS Hive using PySpark",
    "AUTHOR": "Vitwit",
    "DATABASE": {
        "url": "jdbc:mysql://localhost/test?zeroDateTimeBehavior=convertToNull",
        "driver": "com.mysql.jdbc.Driver",
        "user": "root",
        "password": "rgukt123",
        "dbtable": "customers"
    },
    "FILE_PATH1": "Reviews.csv",
    "FILE_PATH2": "b.csv",
    "FILE_PATH3": "c.csv",
    "FILE_PATH4": "d.csv",
    "FILE_PATH5": "e.csv"
}
